%YAML 1.1
%TAG !u! tag:unity3d.com,2011:
--- !u!21 &2100000
Material:
  serializedVersion: 3
  m_ObjectHideFlags: 0
  m_PrefabParentObject: {fileID: 0}
  m_PrefabInternal: {fileID: 0}
  m_Name: skybox
  m_Shader: {fileID: 4800000, guid: a492c3325959f45e998209ecf4bade57, type: 3}
  m_ShaderKeywords: []
  m_CustomRenderQueue: -1
  m_SavedProperties:
    serializedVersion: 2
    m_TexEnvs:
      data:
        first:
          name: _MainTex
        second:
          m_Texture: {fileID: 2800000, guid: c7823349d54534cd1b3078b6bf95c848, type: 3}
          m_Scale: {x: 1, y: 1}
          m_Offset: {x: 10, y: 0}
    m_Floats:
      data:
        first:
          name: _Shininess
        second: .845902741
    m_Colors:
      data:
        first:
          name: _Color
        second: {r: .495967746, g: .495967746, b: .495967746, a: 1}
      data:
        first:
          name: _SpecColor
        second: {r: 0, g: 0, b: 0, a: 1}
      data:
        first:
          name: _Emission
        second: {r: 0, g: 0, b: 0, a: 1}
--- !u!1002 &2100001
EditorExtensionImpl:
  serializedVersion: 6
