%YAML 1.1
%TAG !u! tag:unity3d.com,2011:
--- !u!21 &2100000
Material:
  serializedVersion: 3
  m_ObjectHideFlags: 0
  m_PrefabParentObject: {fileID: 0}
  m_PrefabInternal: {fileID: 0}
  m_Name: structuremaintgaReflection
  m_Shader: {fileID: 4800000, guid: cf94a5f7b4338492eb07eac080e6a7b2, type: 3}
  m_ShaderKeywords: []
  m_CustomRenderQueue: -1
  m_SavedProperties:
    serializedVersion: 2
    m_TexEnvs:
      data:
        first:
          name: _MainTex
        second:
          m_Texture: {fileID: 2800000, guid: d17bde395b617419494df898c3c84f72, type: 3}
          m_Scale: {x: 1, y: 1}
          m_Offset: {x: 0, y: 0}
      data:
        first:
          name: _LightMap
        second:
          m_Texture: {fileID: 2800000, guid: 1fbf661875d6b44eca45192cfc4afba7, type: 3}
          m_Scale: {x: 1, y: 1}
          m_Offset: {x: 0, y: 0}
      data:
        first:
          name: _Reflect
        second:
          m_Texture: {fileID: 2800000, guid: c7823349d54534cd1b3078b6bf95c848, type: 3}
          m_Scale: {x: 1, y: 1}
          m_Offset: {x: 0, y: 0}
    m_Floats: {}
    m_Colors:
      data:
        first:
          name: _Color
        second: {r: 1, g: .969260812, b: .802419364, a: 1}
--- !u!1002 &2100001
EditorExtensionImpl:
  serializedVersion: 6
