%YAML 1.1
%TAG !u! tag:unity3d.com,2011:
--- !u!21 &2100000
Material:
  serializedVersion: 3
  m_ObjectHideFlags: 0
  m_PrefabParentObject: {fileID: 0}
  m_PrefabInternal: {fileID: 0}
  m_Name: structuredoors
  m_Shader: {fileID: 4800000, guid: 45e262839a093429682da47dda1102a4, type: 3}
  m_ShaderKeywords: []
  m_CustomRenderQueue: -1
  m_SavedProperties:
    serializedVersion: 2
    m_TexEnvs:
      data:
        first:
          name: _MainTex
        second:
          m_Texture: {fileID: 2800000, guid: 56c1ab249216a4f84b5eab5767b67e0f, type: 3}
          m_Scale: {x: 1, y: 1}
          m_Offset: {x: 0, y: 0}
      data:
        first:
          name: _LightMap
        second:
          m_Texture: {fileID: 2800000, guid: 8c88862dae25443679afc90d5a60d2f6, type: 3}
          m_Scale: {x: 1, y: 1}
          m_Offset: {x: 0, y: 0}
    m_Floats: {}
    m_Colors:
      data:
        first:
          name: _Color
        second: {r: 1, g: .969260812, b: .802419364, a: 1}
--- !u!1002 &2100001
EditorExtensionImpl:
  serializedVersion: 6
